{"docs":[{"_id":"6044292f102499001f09c9d1","name":"Perl Behnke","location":"San Marcos","age":41,"infectedtype":"imported","state":"symptomatic","source":"rabbitmq","createdAt":"2021-03-07T01:15:27.340Z","updatedAt":"2021-03-07T01:15:27.340Z","__v":0},{"_id":"6044292f102499001f09c9d2","name":"Perl Behnke","location":"San Marcos","age":41,"infectedtype":"imported","state":"symptomatic","source":"rabbitmq","createdAt":"2021-03-07T01:15:27.767Z","updatedAt":"2021-03-07T01:15:27.767Z","__v":0},{"_id":"60442930102499001f09c9d3","name":"Latisha Gheorghe","location":"Santa Rosa","age":31,"infectedtype":"non-imported","state":"symptomatic","source":"rabbitmq","createdAt":"2021-03-07T01:15:28.003Z","updatedAt":"2021-03-07T01:15:28.003Z","__v":0},{"_id":"60442930102499001f09c9d4","name":"Adda Wherry","location":"Izabal","age":4,"infectedtype":"non-imported","state":"asymptomatic","source":"rabbitmq","createdAt":"2021-03-07T01:15:28.770Z","updatedAt":"2021-03-07T01:15:28.770Z","__v":0},{"_id":"60442931102499001f09c9d5","name":"Carter Grotty","location":"Escuintla","age":27,"infectedtype":"communitary","state":"asymptomatic","source":"rabbitmq","createdAt":"2021-03-07T01:15:29.144Z","updatedAt":"2021-03-07T01:15:29.144Z","__v":0},{"_id":"60442931102499001f09c9d6","name":"Perl Behnke","location":"San Marcos","age":41,"infectedtype":"imported","state":"symptomatic","source":"rabbitmq","createdAt":"2021-03-07T01:15:29.501Z","updatedAt":"2021-03-07T01:15:29.501Z","__v":0},{"_id":"60442932102499001f09c9d7","name":"Pat Barnsdale","location":"Alta Verapaz","age":49,"infectedtype":"communitary","state":"asymptomatic","source":"rabbitmq","createdAt":"2021-03-07T01:15:30.238Z","updatedAt":"2021-03-07T01:15:30.238Z","__v":0},{"_id":"60442932102499001f09c9d8","name":"Perl Behnke","location":"San Marcos","age":41,"infectedtype":"imported","state":"symptomatic","source":"rabbitmq","createdAt":"2021-03-07T01:15:30.269Z","updatedAt":"2021-03-07T01:15:30.269Z","__v":0},{"_id":"60442932102499001f09c9d9","name":"Latisha Gheorghe","location":"Santa Rosa","age":31,"infectedtype":"non-imported","state":"symptomatic","source":"rabbitmq","createdAt":"2021-03-07T01:15:30.313Z","updatedAt":"2021-03-07T01:15:30.313Z","__v":0},{"_id":"60442932102499001f09c9da","name":"Perl Behnke","location":"San Marcos","age":41,"infectedtype":"imported","state":"symptomatic","source":"rabbitmq","createdAt":"2021-03-07T01:15:30.345Z","updatedAt":"2021-03-07T01:15:30.345Z","__v":0}],"totalDocs":72,"offset":0,"limit":10,"totalPages":8,"page":1,"pagingCounter":1,"hasPrevPage":false,"hasNextPage":true,"prevPage":null,"nextPage":2}